{  
    "request": {  
      "country": "uk",  
      "language": "en",  
      "location": "brighton",  
      "num_res": "20",  
      "offset": 0,  
      "output": "json_xs",  
      "page": 1,  
      "pretty": "1",  
      "product_type": "realestate",  
      "property_type": "property",  
      "size_type": "net",  
      "size_unit": "m2",  
      "sort": "nestoria_rank",  
      "listing_type": "buy"  
    },  
    "response": {  
      "application_response_code": "100",  
      "application_response_text": "listings returned for one unambiguous location",  
      "attribution": {  
        "img_height": 22,  
        "img_url": "https://resources.nestimg.com/nestoria/img/pbr_v1.png",  
        "img_width": 183,  
        "link_to_img": "http://www.nestoria.com"  
      },  
      "created_http": "Tue, 06 Feb 2018 20:14:32 GMT",  
      "created_unix": 1517948072,  
      "link_to_url": "https://www.nestoria.co.uk/brighton/property/buy",  
      "listings": [  
        {  
          "bathroom_number": "",  
          "bedroom_number": 4,  
          "car_spaces": 0,  
          "commission": 0,  
          "construction_year": 0,  
          "datasource_name": "Property Pigeon",  
          "img_height": 300,  
          "img_url": "https://imgs.nestimg.com/brentwood_crescent_brighton_bn17eu_108637557263529728.jpg",  
          "img_width": 400,  
          "keywords": "Garden, Conversion, Garage, Kitchen, Gas Central Heating",  
          "latitude": 50.848366,  
          "lister_url": "https://www.nestoria.co.uk/detail/0000000108637557263529728/title/5/1-1?serpUid=&pt=1&ot=1&l=brighton&did=95_default&utm_source=api&utm_medium=external",  
          "listing_type": "buy",  
          "location_accuracy": 9,  
          "longitude": -0.128876,  
          "price": 445000,  
          "price_currency": "£",  
          "price_formatted": "£445,000",  
          "price_high": 445000,  
          "price_low": 445000,  
          "property_type": "house",  
          "size": 0,  
          "size_type": "net",  
          "summary": "Located in the residential area of hollingdean with a great communi...",  
          "thumb_height": 60,  
          "thumb_url": "https://imgs.nestimg.com/medium/brentwood_crescent_brighton_bn17eu_108637557263529728.jpg",  
          "thumb_width": 80,  
          "title": "Brentwood Crescent,  Brighton, BN1",  
          "updated_in_days": 3,  
          "updated_in_days_formatted": "first seen 3 days ago"  
        }  
      ],  
      "locations": [  
        {  
          "center_lat": 50.854603,  
          "center_long": -0.132899,  
          "long_title": "Brighton",  
          "place_name": "brighton",  
          "title": "Brighton"  
        }  
      ],  
      "page": 1,  
      "sort": "nestoria_rank",  
      "status_code": "200",  
      "status_text": "OK",  
      "thanks": "For using the Nestoria API.",  
      "total_pages": 151,  
      "total_results": 3038,  
      "_cu5t0mP434m_": "remove"  
    }  
  }  
 

